    {
      "key": "confluence-helloworld-addon",
      "name": "Hello World",
      "description": "My very first add-on",
      "vendor": {
        "name": "Angry Nerds",
        "url": "https://www.atlassian.com/angrynerds"
      },
      "baseUrl": "{{localBaseUrl}}",
      "links": {
        "self": "{{localBaseUrl}}/atlassian-connect.json",
        "homepage": "{{localBaseUrl}}/atlassian-connect.json"
      },
      "authentication": {
        "type": "jwt"
      },
      "lifecycle": {
        "installed": "/installed"
      },
      "scopes": [
        "READ"
      ],
      "modules": {
        "staticContentMacros": [
          {
            "key": "helloworld-macro-static",
            "name": {
              "value": "Hello World Macro Static"
            },
            "url": "/macro-static",
            "description": {
              "value": "Says 'Hello World'."
            },
            "outputType": "block",
            "bodyType": "none"
          }
        ],
        "dynamicContentMacros": [
          {
            "key": "helloworld-macro",
            "name": {
              "value": "Hello World Macro"
            },
            "url": "/macro",
            "description": {
              "value": "Says 'Hello World'."
            },
            "outputType": "block",
            "bodyType": "none"
          }
        ]
      }
    }







